Datos para la construccion del indice de resliencia
…
Esta formado por el promedio simple de cuatro componentes: Estabilidad Macroeconomica,Eficiiencia Microeconomica,Bue Gobierno y Desarrollo Social

Revision de variables

1 Estabilidad Macroeconomica

Compuesto por tres subcomponentes,\(\frac{DeficitFiscal}{PIB}\), \(\sum(Desempleo,Inflacion)\),\(\frac{Deuda Externa}{PIB}\)

1.1 Fiscal Deficit

El deficit fiscal fue obtenida de la pagina de WEO del FMI.

Se toma Como deficit fiscal al saldo ajustado en función del ciclo, saldo fiscal ajustado por los efectos del ciclo económico. Por lo tanto se mide en porcentajes del PIB potencial. No hay los datos para algunos paises como Belize,Bolivia, Honduras y otros

## # A tibble: 31 x 26
##    Countries `2000` `2001` `2002` `2003` `2004` `2005` `2006` `2007` `2008` `2009`
##    <chr>      <dbl>  <dbl>  <dbl>  <dbl>  <dbl>  <dbl>  <dbl>  <dbl>  <dbl>  <dbl>
##  1 Antigua ~  NA    NA     NA     NA     NA     NA      NA    NA     NA      NA   
##  2 Argentina  -4.56 -5.68   1.18   3.45   4.72   4.38    2.76  0.692 -0.445   0.47
##  3 The Baha~  NA    NA     NA     NA     NA     NA      NA    NA     NA      NA   
##  4 Barbados    5.47  4.33  -6.72  -4.63  -4.36  -4.53   -5.02 -6.36  -6.18   -8.69
##  5 Belize     NA    NA     NA     NA     NA     NA      NA    NA     NA      NA   
##  6 Bolivia    NA    NA     NA     NA     NA     NA      NA    NA     NA      NA   
##  7 Brazil     -3.49 -2.61  -3.80  -3.83  -2.40  -2.89   -3.03 -3.00  -2.30   -3.08
##  8 Canada      2.08  0.811 -0.08   0.197  0.614  0.994   1.16  1.17  -0.037  -1.77
##  9 Chile      NA     0.67   0.326  0.824  1.06   1.11    1.37  1.06  -1      -2.87
## 10 Colombia   -3.72 -3.15  -2.38  -1.16   0.09   0.571  -1.33 -2.02  -1.10   -2.16
## # ... with 21 more rows, and 15 more variables: `2010` <dbl>, `2011` <dbl>,
## #   `2012` <dbl>, `2013` <dbl>, `2014` <dbl>, `2015` <dbl>, `2016` <dbl>,
## #   `2017` <dbl>, `2018` <dbl>, `2019` <dbl>, `2020` <dbl>, `2021` <dbl>,
## #   `2022` <dbl>, `2023` <dbl>, `2024` <dbl>

1.2 Unemployment rate, Inflation,

Los datos fueron obtenidos de WDI del Banco Mundial

1.2.1 Tasa de inflacion enlazada.

La inflacion medida por el cambio en el IPC no hay para algunos paises en la WDI & ISF, como por ejemplo, Argentina. Por eso se opta por el momento por la inflacion medidad por el deflactor del PIB del BM que garantiza la comparabilidad de las series entre paises. Ojo con los datos de Ecuador

Se considera la inflación medida por la tasa de crecimiento anual del deflactor implícito del PIB que muestra la tasa de cambio de precios en la economía en su conjunto. Esta serie se ha vinculado para producir una serie de tiempo consistente para contrarrestar las interrupciones en la serie a lo largo del tiempo debido a cambios en los años base, datos fuente y metodologías.-WDI

## # A tibble: 32 x 21
##    Countries `2000` `2001` `2002` `2003` `2004` `2005` `2006` `2007`  `2008` `2009`
##    <chr>      <dbl>  <dbl>  <dbl>  <dbl>  <dbl>  <dbl>  <dbl>  <dbl>   <dbl>  <dbl>
##  1 Antigua ~ -1.19   1.48   0.701 -0.963   1.64   4.46  0.408   3.74  4.38     1.79
##  2 Argentina  1.04  -1.10  30.6   10.5    18.4   10.3  13.7    14.9  23.2     15.4 
##  3 The Baha~  0.922  0.353  3.96   1.15    1.19   5.06  0.828   2.95  1.49    -1.04
##  4 Barbados  -1.34   2.26   0.904  1.12    5.82   6.68  2.41    8.80  1.45    -1.91
##  5 Belize     0.476 -0.223  1.75  -2.86    2.07   2.68  4.48    4.85  2.73    -3.09
##  6 Bolivia    5.20   1.87   2.82   6.33    7.97   5.94 13.7     7.37 10.4     -2.42
##  7 Brazil     5.61   8.23   9.80  14.1     7.75   7.43  6.77    6.44  8.78     7.31
##  8 Canada     4.60   2.02   0.841  1.26    2.46   1.38  1.09   -1.33  4.00    -2.32
##  9 Chile      4.27   3.86   3.39   4.58    7.85   7.64 12.2     5.34 -0.0534   4.65
## 10 Colombia  11.2    6.52   5.97   6.83    7.28   4.56  5.78    5.13  7.74     4.24
## # ... with 22 more rows, and 10 more variables: `2010` <dbl>, `2011` <dbl>,
## #   `2012` <dbl>, `2013` <dbl>, `2014` <dbl>, `2015` <dbl>, `2016` <dbl>,
## #   `2017` <dbl>, `2018` <dbl>, `2019` <dbl>

1.2.2 Tasa de desempleo.

La serie es parte de las estimaciones de la OIT y está armonizada para garantizar la comparabilidad entre países y a lo largo del tiempo, teniendo en cuenta las diferencias en la fuente de datos, el alcance de la cobertura, la metodología y otros factores específicos de cada país.

## # A tibble: 32 x 21
##    Countries `2000` `2001` `2002` `2003` `2004` `2005` `2006` `2007` `2008` `2009`
##    <chr>      <dbl>  <dbl>  <dbl>  <dbl>  <dbl>  <dbl>  <dbl>  <dbl>  <dbl>  <dbl>
##  1 Antigua ~  NA     NA     NA     NA     NA     NA     NA     NA     NA     NA   
##  2 Argentina  15     17.3   19.6   15.4   13.5   11.5   10.1    8.47   7.84   8.65
##  3 The Baha~   6.96   6.87   9.05  10.8   10.2   10.2    7.54   7.88   8.18  14.2 
##  4 Barbados    9.35   9.85  10.3   11      9.57   9.08   8.73   7.41   8.12  10.0 
##  5 Belize     10.9    9.07  10.0   10.4   10.7   10.9    9.39   8.51   8.18   8.46
##  6 Bolivia     2.89   2.89   2.93   2.94   2.90   2.84   2.73   2.63   2.60   2.86
##  7 Brazil      9.90   9.61   9.37   9.99   9.10   9.57   8.64   8.33   7.34   8.52
##  8 Canada      6.83   7.22   7.66   7.57   7.18   6.76   6.32   6.04   6.14   8.34
##  9 Chile      10.5   10.4   10.2    9.77  10.2    9.34   9.02   8.43   9.28  11.3 
## 10 Colombia   20.5   15.0   15.6   14.2   13.7   11.9   11.5   11.2   11.3   12.1 
## # ... with 22 more rows, and 10 more variables: `2010` <dbl>, `2011` <dbl>,
## #   `2012` <dbl>, `2013` <dbl>, `2014` <dbl>, `2015` <dbl>, `2016` <dbl>,
## #   `2017` <dbl>, `2018` <dbl>, `2019` <dbl>

1.3 External Debt.

Los datos fueron obtenidos de WDI

Los datos para \(\frac{DeudaExterna}{PIB}\) no hay en FMI o BM, por lo tanto Se considera \(\frac{DeudaExterna}{PNB}\) de los datos del Banco Mundial.

Para algunos paises no hay datos de la deuda externa total para obtener la relacion directa con el PIB, por ejemplo para Chile,Cuba, Estados Unidos,etc. Sugerir tratamiento Una opcion sería saldo de la cuenta corriente?

## # A tibble: 32 x 21
##    Countries `2000` `2001` `2002` `2003` `2004` `2005` `2006` `2007` `2008` `2009`
##    <chr>      <dbl>  <dbl>  <dbl>  <dbl>  <dbl>  <dbl>  <dbl>  <dbl>  <dbl>  <dbl>
##  1 Antigua ~   NA     NA     NA     NA     NA     NA     NA     NA     NA     NA  
##  2 Argentina   54.2   58.5  160.   133.   115.    74.2   52.9   43.2   36.8   41.4
##  3 The Baha~   NA     NA     NA     NA     NA     NA     NA     NA     NA     NA  
##  4 Barbados    NA     NA     NA     NA     NA     NA     NA     NA     NA     NA  
##  5 Belize      80.8   89.7   98.2  118.   103.   102.    96.5   95.0  106.   104. 
##  6 Bolivia     72.1   60.5   66.3   75.4   74.9   76.0   56.6   40.1   35.3   34.7
##  7 Brazil      38.1   42.5   47.2   43.6   34.0   21.8   18.0   17.4   15.9   17.3
##  8 Canada      NA     NA     NA     NA     NA     NA     NA     NA     NA     NA  
##  9 Chile       NA     NA     NA     NA     NA     NA     NA     NA     NA     NA  
## 10 Colombia    35.1   38.2   35.2   40.8   33.8   26.5   24.4   22.1   20.0   23.7
## # ... with 22 more rows, and 10 more variables: `2010` <dbl>, `2011` <dbl>,
## #   `2012` <dbl>, `2013` <dbl>, `2014` <dbl>, `2015` <dbl>, `2016` <dbl>,
## #   `2017` <dbl>, `2018` <dbl>, `2019` <dbl>
…
4 Desarrollo Social

El componente de desarrollo social se calcula de la siguiente forma: \[
\sum(Indice de Educacion,IndicedeSalud)
\] \({IndicedeEducacion}= {Tasa de AlfabetizaciondeAdultos"y"Tasa de Matriculacion Escolar}\). Esto es Suma \(\mathrm{IndicedeSalud}={EsperanzadeVidaalNacer}\)

Datos tomados de PNUD

4.1 Indice de Educacion

4.1.1 Adult Iteracy Rate

Datos no disponibles para algunos paises, como por ejemplo, Estado Unido ,Cuba y demas. Muchos paises y años vacios, buscar alternativas

## # A tibble: 32 x 12
##    Countries `2000` `2005` `2010` `2011` `2012` `2013` `2014` `2015` `2016` `2017`
##    <chr>      <dbl>  <dbl>  <dbl>  <dbl>  <dbl>  <dbl>  <dbl>  <dbl>  <dbl>  <dbl>
##  1 Antigua ~   NA     NA     NA     NA     NA     NA     NA     99     NA       NA
##  2 Argentina   NA     NA     99     99.1   99.1   99.1   99     99.2   99.1     NA
##  3 Barbados    NA     NA     NA     NA     NA     NA     99.6   NA     NA       NA
##  4 Brazil      86.4   NA     90.4   91.4   91.3   91.5   91.7   92     NA       NA
##  5 Chile       NA     NA     NA     96.7   NA     96.3   NA     96.9   NA       NA
##  6 Colombia    NA     92.8   93.4   93.6   NA     NA     94.2   94.2   94.7     NA
##  7 Costa Ri~   94.9   NA     NA     97.4   NA     NA     NA     NA     NA       NA
##  8 Cuba        NA     NA     NA     NA     99.8   NA     NA     NA     NA       NA
##  9 Dominica~   NA     NA     89.5   90.1   90.2   90.9   91.8   92     93.8     NA
## 10 Ecuador     NA     NA     91.9   91.6   92.1   93.3   94.2   94.5   94.3     NA
## # ... with 22 more rows, and 1 more variable: `2018` <dbl>

4.1.2 School Enrolment rates

Se toma la variables de matriculacion en primaria. El paper de referencia no especifica el tipo de matriculacion escolar. Ojo, no hay años continuos en los primeros años.

## # A tibble: 33 x 12
##    Countries `2000` `2005` `2010` `2011` `2012` `2013` `2014` `2015` `2016` `2017`
##    <chr>      <dbl>  <dbl>  <dbl>  <dbl>  <dbl>  <dbl>  <dbl>  <dbl>  <dbl>  <dbl>
##  1 Antigua ~    115     NA     94     91     89     NA     88     88     NA     88
##  2 Argentina    117    117    117    115    113    111    110    110    109     NA
##  3 Barbados     101     96    100     98     NA     NA     94     93     93     92
##  4 Belize       116    113    113    111    114    112    112    113    115    113
##  5 Brazil        NA    133     NA    132    135    114    114    113    114     NA
##  6 Canada       100     97     99     98    100    101    102    103    101     NA
##  7 Chile        106    107    101    100    100     98     98     99    100    101
##  8 Colombia     121    128    124    121    117    117    114    114    114    113
##  9 Costa Ri~    113    113    117    116    115    112    111    110    110     NA
## 10 Cuba         101     98    103    103    102    101    102    101    101    102
## # ... with 23 more rows, and 1 more variable: `2018` <dbl>

Para evitar estos problemas faltantes de paises y años, se sugiere a manera personal, el indice de educacion como reemplazo de alfabetizacion de adultos y la tasa de matriculacion escolar, El indice de eduacion es subcomponente del IDH, que recoge los Años promedios de escolarida y los años esperados de escolaridad. Metodologia en ONU Estos son:

## # A tibble: 34 x 20
##    Countries `2000` `2001` `2002` `2003` `2004` `2005` `2006` `2007` `2008` `2009`
##    <chr>      <dbl>  <dbl>  <dbl>  <dbl>  <dbl>  <dbl>  <dbl>  <dbl>  <dbl>  <dbl>
##  1 Antigua ~ NA     NA     NA     NA     NA      0.773  0.779  0.784  0.783  0.776
##  2 Argentina  0.77   0.775  0.77   0.775  0.775  0.777  0.801  0.806  0.81   0.81 
##  3 Barbados   0.771  0.77   0.774  0.778  0.782  0.786  0.791  0.796  0.799  0.801
##  4 Belize     0.643  0.647  0.655  0.663  0.668  0.666  0.676  0.678  0.683  0.688
##  5 Bolivia    0.616  0.619  0.625  0.629  0.63   0.632  0.638  0.638  0.647  0.651
##  6 Brazil     0.684  0.691  0.698  0.694  0.697  0.7    0.701  0.705  0.716  0.718
##  7 Canada     0.868  0.872  0.877  0.882  0.887  0.892  0.895  0.891  0.893  0.893
##  8 Chile      0.753  0.764  0.767  0.773  0.782  0.788  0.787  0.801  0.811  0.819
##  9 Colombia   0.662  0.664  0.667  0.666  0.68   0.693  0.7    0.713  0.72   0.724
## 10 Costa Ri~  0.711  0.714  0.717  0.72   0.724  0.728  0.734  0.742  0.75   0.751
## # ... with 24 more rows, and 9 more variables: `2010` <dbl>, `2011` <dbl>,
## #   `2012` <dbl>, `2013` <dbl>, `2014` <dbl>, `2015` <dbl>, `2016` <dbl>,
## #   `2017` <dbl>, `2018` <dbl>

4.2 Indice de salud

Tomada por la variable de esperanza de vida al nacer. Por lo tanto, para poder sumarlar con el indice de educacion, se estabdariza usando la primera formula: \(\mathrm{XE}=\frac{X-MinX}{Max{X}-MinX}\) , donde \(MinX=20\) y \(MaxX=85\) de acuerdo a la teoria. Verse IDH Los resultados estandarizados no se muestran, para evitar confusiones.

## # A tibble: 34 x 20
##    Countries `2000` `2001` `2002` `2003` `2004` `2005` `2006` `2007` `2008` `2009`
##    <chr>      <dbl>  <dbl>  <dbl>  <dbl>  <dbl>  <dbl>  <dbl>  <dbl>  <dbl> <chr> 
##  1 Antigua ~   73.9   74.2   74.4   74.6   74.8   75     75.2   75.4   75.5 75.7  
##  2 Argentina   73.6   73.8   73.9   74.1   74.3   74.5   74.6   74.8   75   75.1  
##  3 Barbados    77.2   77.4   77.5   77.7   77.8   77.9   78     78.1   78.2 78.3  
##  4 Belize      68.8   69     69.3   69.5   69.7   70     70.3   70.6   71.1 71.5  
##  5 Bolivia     62.5   63.1   63.6   64.2   64.8   65.3   65.9   66.4   66.9 67.5  
##  6 Brazil      70.1   70.5   70.8   71.2   71.5   71.9   72.3   72.6   73   73.3  
##  7 Canada      79.1   79.3   79.6   79.8   80     80.2   80.5   80.7   80.9 81.1  
##  8 Chile       76.4   76.6   76.9   77.1   77.4   77.6   77.9   78.1   78.3 78.6  
##  9 Colombia    72.9   73.2   73.5   73.8   74     74.3   74.5   74.7   75   75.2  
## 10 Costa Ri~   77.5   77.6   77.7   77.9   78     78.1   78.2   78.4   78.5 78.6  
## # ... with 24 more rows, and 9 more variables: `2010` <chr>, `2011` <chr>,
## #   `2012` <chr>, `2013` <chr>, `2014` <chr>, `2015` <chr>, `2016` <chr>,
## #   `2017` <chr>, `2018` <chr>
…
